1 10 20
100 200 125
201 210 89
900 1000 174
141 634 144
215 1038 179
389 403 121
111 887 179
375 1125 179
103 570 144
114 173 125
141 239 128
155 1004 179
69 197 125
108 876 179
267 314 131
287 311 118
259 979 179
201 662 145
73 837 171
295 852 171
340 471 134
128 294 128
8 968 179
121 299 128
122 1143 179
266 387 144
204 459 144
14 140 122
231 379 144
39 84 116
139 296 128
132 1127 179
197 289 128
34 894 179
81 331 144
155 230 125
20 417 144
66 997 179
214 249 128
377 1071 179
254 806 171
340 419 134
191 381 144
244 482 144
274 368 144
222 558 144
225 886 179
51 360 144
7 943 179
293 1229 182
4 1093 179
114 227 125
18 180 125
201 864 171
328 1088 179
297 713 171
216 548 144
32 1145 179
42 1104 179
249 369 144
142 425 144
224 745 171
353 753 171
28 929 179
212 930 179
120 295 128
351 847 171
123 694 145
25 889 179
37 523 144
153 198 125
353 1215 182
99 181 125
194 945 179
227 278 128
206 1040 179
152 906 179
227 234 128
336 1231 182
410 1161 182
293 955 179
90 215 125
208 312 128
229 507 144
310 375 144
281 342 144
145 711 171
363 447 134
152 234 128
59 954 179
275 1081 179
74 812 171
72 1044 179
284 896 179
86 1192 182
218 367 144
180 583 144
206 814 171
34 93 116
3 334 144
150 1193 182
193 1013 179
39 1059 179
38 524 144
136 561 144
63 642 144
170 255 128
137 639 144
615486 172293 470
602668 275892 470
684217 31528 509
966365 284584 525
987845 593556 525
741373 846484 525
199419 591331 470
439713 971903 525
490450 147116 449
372064 965226 525
709992 195158 509
615819 971744 525
729058 466258 509
315798 368213 441
340995 692521 509
188629 751288 509
284983 314301 389
906543 895500 445
984442 20390 525
939321 551694 525
478965 600888 470
757944 6578 509
255084 176985 443
374294 750776 509
320387 776176 509
445113 887645 525
863727 597263 525
663277 388574 509
4627 217001 386
470352 652264 509
551178 613063 434
55134 31851 340
326720 858512 525
494288 734157 509
280355 798895 509
864685 991966 507
63946 719815 509
356959 922311 525
408171 171917 443
697944 598952 509
870088 193826 525
979839 976555 383
328188 855462 525
386758 953271 525
62311 534311 470
652717 504113 509
318510 878953 525
977940 417694 525
594899 806548 509
421562 600497 470
733278 494899 509
145255 723844 509
254383 676745 509
918406 574758 525
111399 78182 354
351791 889863 525
22376 998566 525
130227 401864 443
931397 808816 525
129488 999477 525
287730 363518 441
791854 765591 468
356635 837064 509
361378 61473 443
940650 609282 525
523188 536298 408
457442 839880 525
168167 330064 443
777134 748315 468
687244 983061 525
163741 632998 509
850981 43227 525
110360 18507 354
379760 782687 509
195632 933916 525
879177 508150 525
634360 66720 509
588602 422391 470
787942 202651 509
379784 410582 449
698701 919677 525
343038 965655 525
751651 534797 509
567481 458710 470
761387 243670 509
74451 407946 443
326949 708083 509
261931 202541 443
125383 319737 443
868911 937513 476
784652 304090 509
778354 1790 509
689279 554277 509
203427 355948 443
402458 182536 443
767474 797438 468
973540 974656 383
154475 417016 449
900021 980306 507
373208 537725 470
489291 901568 525
427178 572019 470
108393 740615 509
826541 149624 509
819329 365580 509
85451 925274 525
132361 238187 443
589535 407524 470
935210 95254 525
249489 665709 509
599707 74312 470
636081 787310 504
31926 467347 449
222171 511949 470
887813 944602 507
789366 640602 504
678279 50770 509
422004 184939 449
820595 956231 525
591609 514940 452
574777 33189 470
745402 944169 525
447664 921503 525
220932 933295 525
861471 431735 525
792215 470561 509
385065 550843 470
25166 412427 449
392005 353360 436
960448 475171 525
342896 339004 366
572133 590382 434
740630 208843 509
301620 951753 525
95362 682680 509
770612 984059 525
